Id,Designator,Package,Quantity,Designation,Supplier and ref
1,U3,DHT-22,1,DHT22,https://www.banggood.com/Wholesale-Geekcreit-DHT22-AM2302-Digital-Temperature-Humidity-Sensor-Replace-SHT15-Logger-p-47240.html?rmmds=myorder&cur_warehouse=CN
2,A1,Heltec_CubeCell_HTCC-AB01,1,CubeCell_HTCC-AB01,https://www.banggood.com/ASR6501-SX1262-LoRaWAN-LoRa-Node-Development-Board-CubeCell-Module-Wifi-433MHz-or-470-510MHz-or-863-870MHz-or-902-p-1590610.html?rmmds=myorder&ID=510804&cur_warehouse=CN
3,L1,L_Radial_D24.4mm_P26.00mm_muRATA_1400series,1,68uH,RS Radionics – 715-6765
4,U2,PMS7003M,1,PMS7003M,https://www.banggood.com/Plantower-PMS7003M-G7M-PM2_5-Sensor-Laser-Particle-Sensor-Detector-Air-Quality-Tester-p-1605643.html?rmmds=myorder&cur_warehouse=CN
5,Rsc1,TO-220-2_Vertical,1,0.68,RS Radionics – 485-2451
6,D1,D_DO-41_SOD81_P10.16mm_Horizontal,1,1N5819,
7,U1,DIP-8_W7.62mm,1,MC34063AP,RS Radionics – 661-8430
8,R1,R_Axial_DIN0207_L6.3mm_D2.5mm_P10.16mm_Horizontal,1,1k,
9,R3,R_Axial_DIN0207_L6.3mm_D2.5mm_P10.16mm_Horizontal,1,3k,
10,R2,R_Axial_DIN0207_L6.3mm_D2.5mm_P10.16mm_Horizontal,1,180,
11,C1,C_Radial_D5.0mm_H7.0mm_P2.00mm,1,100uF,
12,Co1,C_Radial_D6.3mm_H11.0mm_P2.50mm,1,330uF,RS Radionics – 711-1113
13,CT1,C_Disc_D8.0mm_W5.0mm_P5.00mm,1,391pF,RS Radionics – 716-7239
,,18650 battery,1,,RS Radionics – 788-7261
,,Solar cell,3,Seeed Studio 0.5W solar cell,https://ie.rs-online.com/web/p/solar-panels/1793740
,,Battery holder,,,
,,Power switch (optional),,,
