EESchema Schematic File Version 4
EELAYER 30 0
EELAYER END
$Descr A4 11693 8268
encoding utf-8
Sheet 1 1
Title ""
Date ""
Rev ""
Comp ""
Comment1 ""
Comment2 ""
Comment3 ""
Comment4 ""
$EndDescr
$Comp
L Regulator_Switching:MC34063AP U1
U 1 1 5E9993DB
P 1700 3050
F 0 "U1" H 1700 3517 50  0000 C CNN
F 1 "MC34063AP" H 1700 3426 50  0000 C CNN
F 2 "Package_DIP:DIP-8_W7.62mm" H 1750 2600 50  0001 L CNN
F 3 "http://www.onsemi.com/pub_link/Collateral/MC34063A-D.PDF" H 2200 2950 50  0001 C CNN
	1    1700 3050
	1    0    0    -1  
$EndComp
Wire Wire Line
	2350 3050 2100 3050
Wire Wire Line
	2100 3250 2350 3250
Wire Wire Line
	1300 3250 1300 3550
Wire Wire Line
	2100 2950 2300 2950
$Comp
L Device:CP Co1
U 1 1 5E9A0D47
P 3100 4150
F 0 "Co1" H 3218 4196 50  0000 L CNN
F 1 "330uF" H 3218 4105 50  0000 L CNN
F 2 "Capacitor_THT:C_Radial_D6.3mm_H11.0mm_P2.50mm" H 3138 4000 50  0001 C CNN
F 3 "~" H 3100 4150 50  0001 C CNN
	1    3100 4150
	1    0    0    -1  
$EndComp
Wire Wire Line
	3100 3600 3100 4000
Wire Wire Line
	2900 4000 3100 4000
Connection ~ 3100 4000
Wire Wire Line
	3100 4300 3100 4600
$Comp
L power:Earth #PWR03
U 1 1 5E999A34
P 1800 3350
F 0 "#PWR03" H 1800 3100 50  0001 C CNN
F 1 "Earth" H 1800 3200 50  0001 C CNN
F 2 "" H 1800 3350 50  0001 C CNN
F 3 "~" H 1800 3350 50  0001 C CNN
	1    1800 3350
	1    0    0    -1  
$EndComp
$Comp
L Diode:1N5819 D1
U 1 1 5E999B0A
P 3100 3450
F 0 "D1" V 3146 3371 50  0000 R CNN
F 1 "1N5819" V 3055 3371 50  0000 R CNN
F 2 "Diode_THT:D_DO-41_SOD81_P10.16mm_Horizontal" H 3100 3275 50  0001 C CNN
F 3 "http://www.vishay.com/docs/88525/1n5817.pdf" H 3100 3450 50  0001 C CNN
	1    3100 3450
	0    -1   -1   0   
$EndComp
$Comp
L Device:R Rsc1
U 1 1 5E99A09B
P 1100 2600
F 0 "Rsc1" H 1170 2646 50  0000 L CNN
F 1 "0.68" H 1170 2555 50  0000 L CNN
F 2 "Package_TO_SOT_THT:TO-220-2_Vertical" V 1030 2600 50  0001 C CNN
F 3 "~" H 1100 2600 50  0001 C CNN
	1    1100 2600
	1    0    0    -1  
$EndComp
$Comp
L Device:R R1
U 1 1 5E99A113
P 2100 4300
F 0 "R1" H 2170 4346 50  0000 L CNN
F 1 "1k" H 2170 4255 50  0000 L CNN
F 2 "Resistor_THT:R_Axial_DIN0207_L6.3mm_D2.5mm_P10.16mm_Horizontal" V 2030 4300 50  0001 C CNN
F 3 "~" H 2100 4300 50  0001 C CNN
	1    2100 4300
	1    0    0    -1  
$EndComp
$Comp
L Device:R R3
U 1 1 5E99A1AC
P 2750 4000
F 0 "R3" V 2543 4000 50  0000 C CNN
F 1 "3k" V 2634 4000 50  0000 C CNN
F 2 "Resistor_THT:R_Axial_DIN0207_L6.3mm_D2.5mm_P10.16mm_Horizontal" V 2680 4000 50  0001 C CNN
F 3 "~" H 2750 4000 50  0001 C CNN
	1    2750 4000
	0    1    1    0   
$EndComp
$Comp
L Device:R R2
U 1 1 5E99A236
P 2450 2950
F 0 "R2" V 2657 2950 50  0000 C CNN
F 1 "180" V 2566 2950 50  0000 C CNN
F 2 "Resistor_THT:R_Axial_DIN0207_L6.3mm_D2.5mm_P10.16mm_Horizontal" V 2380 2950 50  0001 C CNN
F 3 "~" H 2450 2950 50  0001 C CNN
	1    2450 2950
	0    -1   -1   0   
$EndComp
$Comp
L Device:L_Core_Iron L1
U 1 1 5E99A679
P 3100 3000
F 0 "L1" H 3187 3046 50  0000 L CNN
F 1 "68uH" H 3187 2955 50  0000 L CNN
F 2 "Murata:L_Radial_D24.4mm_P26.00mm_muRATA_1400series" H 3100 3000 50  0001 C CNN
F 3 "~" H 3100 3000 50  0001 C CNN
	1    3100 3000
	1    0    0    -1  
$EndComp
Wire Wire Line
	2100 2850 2600 2850
Wire Wire Line
	2600 2850 3100 2850
Connection ~ 2600 2850
Wire Wire Line
	2600 2950 2600 2850
Wire Wire Line
	2600 4000 2100 4000
Wire Wire Line
	2100 4000 2100 3350
Wire Wire Line
	2100 4000 2100 4150
Connection ~ 2100 4000
Wire Wire Line
	1100 2750 1100 2850
Wire Wire Line
	1100 2850 1300 2850
Connection ~ 1100 2850
Wire Wire Line
	1100 2450 2600 2450
Wire Wire Line
	2600 2450 2600 2850
Wire Wire Line
	3100 3150 3100 3300
$Comp
L power:Earth #PWR02
U 1 1 5E99E79A
P 1700 4700
F 0 "#PWR02" H 1700 4450 50  0001 C CNN
F 1 "Earth" H 1700 4550 50  0001 C CNN
F 2 "" H 1700 4700 50  0001 C CNN
F 3 "~" H 1700 4700 50  0001 C CNN
	1    1700 4700
	1    0    0    -1  
$EndComp
$Comp
L Device:C CT1
U 1 1 5E99EBA1
P 1100 3700
F 0 "CT1" H 1215 3746 50  0000 L CNN
F 1 "391pF" H 1215 3655 50  0000 L CNN
F 2 "Capacitor_THT:C_Disc_D8.0mm_W5.0mm_P5.00mm" H 1138 3550 50  0001 C CNN
F 3 "~" H 1100 3700 50  0001 C CNN
	1    1100 3700
	1    0    0    -1  
$EndComp
$Comp
L Device:CP C1
U 1 1 5E99EBFC
P 700 3300
F 0 "C1" H 818 3346 50  0000 L CNN
F 1 "100uF" H 818 3255 50  0000 L CNN
F 2 "Capacitor_THT:C_Radial_D5.0mm_H7.0mm_P2.00mm" H 738 3150 50  0001 C CNN
F 3 "~" H 700 3300 50  0001 C CNN
	1    700  3300
	1    0    0    -1  
$EndComp
Wire Wire Line
	1300 3550 1100 3550
Wire Wire Line
	700  3150 1100 3150
Wire Wire Line
	1100 3150 1100 2850
Wire Wire Line
	2350 3250 2350 4600
Wire Wire Line
	1700 4600 1700 4700
Connection ~ 1700 4600
Wire Wire Line
	1100 3850 1100 4600
Wire Wire Line
	700  3450 700  4600
Wire Wire Line
	1100 4600 1700 4600
Wire Wire Line
	700  4600 1100 4600
Connection ~ 1100 4600
Wire Wire Line
	2100 4450 2100 4600
Wire Wire Line
	2100 4600 1700 4600
Connection ~ 2100 4600
Connection ~ 3100 3150
Wire Wire Line
	2350 3150 3100 3150
Wire Wire Line
	2350 3150 2350 3050
Wire Wire Line
	2350 4600 2100 4600
Wire Wire Line
	3100 4600 2350 4600
Connection ~ 2350 4600
NoConn ~ 4100 2300
NoConn ~ 4100 2400
NoConn ~ 4100 2500
NoConn ~ 4100 2600
NoConn ~ 4100 2700
NoConn ~ 4100 2800
NoConn ~ 5100 2400
NoConn ~ 4100 3200
NoConn ~ 4550 1600
NoConn ~ 4700 1600
NoConn ~ 5100 2700
NoConn ~ 5100 2800
NoConn ~ 5100 3200
Wire Wire Line
	1700 3550 1700 4600
NoConn ~ 5100 2300
NoConn ~ 4100 2900
$Comp
L MCU_Heltec:CubeCell_HTCC-AB01 A1
U 1 1 5EDDAD7D
P 4600 2600
F 0 "A1" H 4600 1525 50  0000 C CNN
F 1 "CubeCell_HTCC-AB01" H 4600 1434 50  0000 C CNN
F 2 "Heltec_MCU:Heltec_CubeCell_HTCC-AB01" H 4050 1450 50  0001 L CNN
F 3 "https://www.arduino.cc/en/Main/ArduinoBoardLeonardo" H 4600 1800 50  0001 C CNN
	1    4600 2600
	1    0    0    -1  
$EndComp
Text Label 3100 4600 0    50   ~ 0
GND
Text Label 1400 5900 0    50   ~ 0
GND
Text Label 1400 6000 0    50   ~ 0
GND
Text Label 4100 2200 2    50   ~ 0
GND
Text Label 5100 2200 0    50   ~ 0
GND
Text Label 5100 2600 0    50   ~ 0
GND
Text Label 3100 4000 0    50   ~ 0
VCC_5V
Text Label 1400 6200 0    50   ~ 0
VCC_5V
Text Label 1400 6300 0    50   ~ 0
VCC_5V
$Comp
L Sensor_PM25:PMS7003M U2
U 1 1 5E9F29D8
P 2000 6100
F 0 "U2" H 2000 6881 50  0000 C CNN
F 1 "PMS7003M" H 2000 6790 50  0000 C CNN
F 2 "Sensor_PM25:PMS7003M" H 1200 5300 50  0001 L CNN
F 3 "" H 2100 5450 50  0001 C CNN
	1    2000 6100
	1    0    0    -1  
$EndComp
Text Label 1100 2850 2    50   ~ 0
VCC_3V
Text Label 4550 4900 0    50   ~ 0
VCC_3V
Text Label 5100 2500 0    50   ~ 0
VCC_3V
$Comp
L Sensor_PM25:DHT22 U3
U 1 1 5F363B66
P 4250 4750
F 0 "U3" H 4020 4796 50  0000 R CNN
F 1 "DHT22" H 4020 4705 50  0000 R CNN
F 2 "Sensor_PM25:DHT-22" H 4400 5000 50  0001 C CNN
F 3 "http://akizukidenshi.com/download/ds/aosong/DHT11.pdf" H 4400 5000 50  0001 C CNN
	1    4250 4750
	0    -1   -1   0   
$EndComp
Text Label 4100 3000 2    50   ~ 0
DATA_DHT
Text Label 4550 4800 0    50   ~ 0
DATA_DHT
Text Label 4550 4600 0    50   ~ 0
GND
Text Label 4350 4150 0    50   ~ 0
VCC_BATT
Text Label 4350 4250 0    50   ~ 0
GND_BATT
Text Label 4100 3500 2    50   ~ 0
VCC_BATT
Text Label 5100 3500 0    50   ~ 0
GND_BATT
$Comp
L Connector_Generic:Conn_01x02 J1
U 1 1 5F919DAE
P 4150 4250
F 0 "J1" H 4068 3925 50  0000 C CNN
F 1 "Conn_01x02" H 4068 4016 50  0000 C CNN
F 2 "Connector_PinHeader_1.27mm:PinHeader_1x02_P1.27mm_Vertical" H 4150 4250 50  0001 C CNN
F 3 "~" H 4150 4250 50  0001 C CNN
	1    4150 4250
	-1   0    0    1   
$EndComp
Text Label 2000 6700 0    50   ~ 0
PMS_SET
Text Label 5100 2900 0    50   ~ 0
PMS_SET
Text Label 4100 3100 2    50   ~ 0
PMS_RESET
Text Label 2000 5500 0    50   ~ 0
PMS_RESET
Text Label 2600 6000 0    50   ~ 0
PMS_RX
Text Label 5100 3100 0    50   ~ 0
PMS_RX
Text Label 2600 6300 0    50   ~ 0
PMS_TX
Text Label 5100 3000 0    50   ~ 0
PMS_TX
$EndSCHEMATC
