EESchema Schematic File Version 4
EELAYER 30 0
EELAYER END
$Descr A4 11693 8268
encoding utf-8
Sheet 1 1
Title ""
Date ""
Rev ""
Comp ""
Comment1 ""
Comment2 ""
Comment3 ""
Comment4 ""
$EndDescr
$Comp
L Regulator_Switching:MC34063AP U1
U 1 1 5E9993DB
P 4600 3350
F 0 "U1" H 4600 3817 50  0000 C CNN
F 1 "MC34063AP" H 4600 3726 50  0000 C CNN
F 2 "Package_DIP:DIP-8_W7.62mm" H 4650 2900 50  0001 L CNN
F 3 "http://www.onsemi.com/pub_link/Collateral/MC34063A-D.PDF" H 5100 3250 50  0001 C CNN
	1    4600 3350
	1    0    0    -1  
$EndComp
$Comp
L power:Earth #PWR02
U 1 1 5E999A34
P 4700 3650
F 0 "#PWR02" H 4700 3400 50  0001 C CNN
F 1 "Earth" H 4700 3500 50  0001 C CNN
F 2 "" H 4700 3650 50  0001 C CNN
F 3 "~" H 4700 3650 50  0001 C CNN
	1    4700 3650
	1    0    0    -1  
$EndComp
$Comp
L Diode:1N5819 D1
U 1 1 5E999B0A
P 6000 3750
F 0 "D1" V 6046 3671 50  0000 R CNN
F 1 "1N5819" V 5955 3671 50  0000 R CNN
F 2 "Diode_THT:D_DO-41_SOD81_P10.16mm_Horizontal" H 6000 3575 50  0001 C CNN
F 3 "http://www.vishay.com/docs/88525/1n5817.pdf" H 6000 3750 50  0001 C CNN
	1    6000 3750
	0    -1   -1   0   
$EndComp
$Comp
L Device:R Rsc1
U 1 1 5E99A09B
P 4000 2900
F 0 "Rsc1" H 4070 2946 50  0000 L CNN
F 1 "0.68" H 4070 2855 50  0000 L CNN
F 2 "Package_TO_SOT_THT:TO-220-2_Vertical" V 3930 2900 50  0001 C CNN
F 3 "~" H 4000 2900 50  0001 C CNN
	1    4000 2900
	1    0    0    -1  
$EndComp
Wire Wire Line
	4000 3150 4200 3150
$Comp
L Device:R R1
U 1 1 5E99A113
P 5000 4600
F 0 "R1" H 5070 4646 50  0000 L CNN
F 1 "1k" H 5070 4555 50  0000 L CNN
F 2 "Resistor_THT:R_Axial_DIN0207_L6.3mm_D2.5mm_P10.16mm_Horizontal" V 4930 4600 50  0001 C CNN
F 3 "~" H 5000 4600 50  0001 C CNN
	1    5000 4600
	1    0    0    -1  
$EndComp
$Comp
L Device:R R3
U 1 1 5E99A1AC
P 5650 4300
F 0 "R3" V 5443 4300 50  0000 C CNN
F 1 "3k" V 5534 4300 50  0000 C CNN
F 2 "Resistor_THT:R_Axial_DIN0207_L6.3mm_D2.5mm_P10.16mm_Horizontal" V 5580 4300 50  0001 C CNN
F 3 "~" H 5650 4300 50  0001 C CNN
	1    5650 4300
	0    1    1    0   
$EndComp
$Comp
L Device:R R2
U 1 1 5E99A236
P 5350 3250
F 0 "R2" V 5557 3250 50  0000 C CNN
F 1 "180" V 5466 3250 50  0000 C CNN
F 2 "Resistor_THT:R_Axial_DIN0207_L6.3mm_D2.5mm_P10.16mm_Horizontal" V 5280 3250 50  0001 C CNN
F 3 "~" H 5350 3250 50  0001 C CNN
	1    5350 3250
	0    -1   -1   0   
$EndComp
Wire Wire Line
	5000 3250 5200 3250
Wire Wire Line
	5000 3150 5500 3150
Wire Wire Line
	5500 3150 6000 3150
Connection ~ 5500 3150
$Comp
L Device:L_Core_Iron L1
U 1 1 5E99A679
P 6000 3300
F 0 "L1" H 6087 3346 50  0000 L CNN
F 1 "68uH" H 6087 3255 50  0000 L CNN
F 2 "Murata:L_Radial_D24.4mm_P26.00mm_muRATA_1400series" H 6000 3300 50  0001 C CNN
F 3 "~" H 6000 3300 50  0001 C CNN
	1    6000 3300
	1    0    0    -1  
$EndComp
Wire Wire Line
	5500 3250 5500 3150
Wire Wire Line
	6000 3900 6000 4300
Wire Wire Line
	5500 4300 5000 4300
Wire Wire Line
	5000 4300 5000 3650
Wire Wire Line
	5000 4300 5000 4450
Connection ~ 5000 4300
Wire Wire Line
	4000 3050 4000 3150
Connection ~ 4000 3150
Wire Wire Line
	4000 2750 5500 2750
Wire Wire Line
	5500 2750 5500 3150
Wire Wire Line
	6000 3450 6000 3600
$Comp
L power:Earth #PWR01
U 1 1 5E99E79A
P 4600 5000
F 0 "#PWR01" H 4600 4750 50  0001 C CNN
F 1 "Earth" H 4600 4850 50  0001 C CNN
F 2 "" H 4600 5000 50  0001 C CNN
F 3 "~" H 4600 5000 50  0001 C CNN
	1    4600 5000
	1    0    0    -1  
$EndComp
$Comp
L Device:C CT1
U 1 1 5E99EBA1
P 4000 4000
F 0 "CT1" H 4115 4046 50  0000 L CNN
F 1 "391pF" H 4115 3955 50  0000 L CNN
F 2 "Capacitor_THT:C_Disc_D8.0mm_W5.0mm_P5.00mm" H 4038 3850 50  0001 C CNN
F 3 "~" H 4000 4000 50  0001 C CNN
	1    4000 4000
	1    0    0    -1  
$EndComp
$Comp
L Device:CP C1
U 1 1 5E99EBFC
P 3600 3600
F 0 "C1" H 3718 3646 50  0000 L CNN
F 1 "100uF" H 3718 3555 50  0000 L CNN
F 2 "Capacitor_THT:C_Radial_D5.0mm_H7.0mm_P2.00mm" H 3638 3450 50  0001 C CNN
F 3 "~" H 3600 3600 50  0001 C CNN
	1    3600 3600
	1    0    0    -1  
$EndComp
Wire Wire Line
	4200 3550 4200 3850
Wire Wire Line
	4200 3850 4000 3850
Wire Wire Line
	3600 3450 4000 3450
Wire Wire Line
	4000 3450 4000 3150
$Comp
L Device:CP Co1
U 1 1 5E9A0D47
P 6000 4450
F 0 "Co1" H 6118 4496 50  0000 L CNN
F 1 "330uF" H 6118 4405 50  0000 L CNN
F 2 "Capacitor_THT:C_Radial_D6.3mm_H11.0mm_P2.50mm" H 6038 4300 50  0001 C CNN
F 3 "~" H 6000 4450 50  0001 C CNN
	1    6000 4450
	1    0    0    -1  
$EndComp
Wire Wire Line
	5800 4300 6000 4300
Connection ~ 6000 4300
Connection ~ 6000 3450
$Comp
L Connector:Conn_01x01_Female GND1
U 1 1 5E9A89DA
P 6000 5250
F 0 "GND1" H 5894 5435 50  0000 C CNN
F 1 "Conn_01x01_Female" H 5894 5344 50  0000 C CNN
F 2 "Connector_Wire:SolderWirePad_1x01_Drill0.8mm" H 6000 5250 50  0001 C CNN
F 3 "~" H 6000 5250 50  0001 C CNN
	1    6000 5250
	-1   0    0    -1  
$EndComp
Wire Wire Line
	5000 3550 5250 3550
Wire Wire Line
	5250 3550 5250 4900
$Comp
L power:PWR_FLAG #FLG01
U 1 1 5E9B3F15
P 4600 4900
F 0 "#FLG01" H 4600 4975 50  0001 C CNN
F 1 "PWR_FLAG" H 4600 5074 50  0000 C CNN
F 2 "" H 4600 4900 50  0001 C CNN
F 3 "~" H 4600 4900 50  0001 C CNN
	1    4600 4900
	1    0    0    -1  
$EndComp
Wire Wire Line
	4600 4900 4600 5000
Connection ~ 4600 4900
Wire Wire Line
	4000 4900 4300 4900
Wire Wire Line
	4000 4150 4000 4900
Wire Wire Line
	3600 4900 4000 4900
Wire Wire Line
	3600 3750 3600 4500
Connection ~ 4000 4900
Wire Wire Line
	5000 4900 4600 4900
Wire Wire Line
	5000 4750 5000 4900
Wire Wire Line
	5250 4900 5000 4900
Connection ~ 5000 4900
Wire Wire Line
	5250 3450 6000 3450
Wire Wire Line
	5250 3450 5250 3350
Wire Wire Line
	5250 3350 5000 3350
Wire Wire Line
	6000 4900 5250 4900
Wire Wire Line
	6000 4600 6000 4900
Connection ~ 5250 4900
$Comp
L Sensor_PM25:M501A U2
U 1 1 5EDCF5DD
P 7850 4300
F 0 "U2" H 7732 3996 50  0000 R CNN
F 1 "DSM501A" H 7732 3905 50  0000 R CNN
F 2 "Sensor_PM25:DSM501A" H 7850 4300 50  0001 C CNN
F 3 "" H 7850 4300 50  0001 C CNN
	1    7850 4300
	-1   0    0    -1  
$EndComp
Connection ~ 6000 4900
Wire Wire Line
	6000 4300 6600 4300
$Comp
L MCU_Heltec:CubeCell_HTCC-AB01 A1
U 1 1 5EDE8BE1
P 2350 4100
F 0 "A1" H 2350 2843 50  0000 C CNN
F 1 "CubeCell_HTCC-AB01" H 2350 2934 50  0000 C CNN
F 2 "Heltec_MCU:Heltec_CubeCell_HTCC-AB01" H 2350 3025 50  0000 C CNN
F 3 "" H 2350 3300 50  0001 C CNN
	1    2350 4100
	1    0    0    1   
$EndComp
Wire Wire Line
	6000 4900 6200 4900
Wire Wire Line
	1850 4500 1600 4500
Wire Wire Line
	1600 4500 1600 5450
Connection ~ 3600 4500
Wire Wire Line
	3600 4500 3600 4900
Wire Wire Line
	3400 3150 4000 3150
Wire Wire Line
	6600 4700 7100 4700
Wire Wire Line
	6600 4300 6600 4700
Wire Wire Line
	7100 4600 6950 4600
Wire Wire Line
	6950 4600 6950 2550
Wire Wire Line
	4600 3850 4600 4900
$Comp
L Connector:Conn_01x01_Female VS1
U 1 1 5EE6B8FD
P 3300 4400
F 0 "VS1" H 3194 4585 50  0000 C CNN
F 1 "Conn_01x01_Female" H 3194 4494 50  0000 C CNN
F 2 "Connector_Wire:SolderWirePad_1x01_Drill0.8mm" H 3300 4400 50  0001 C CNN
F 3 "~" H 3300 4400 50  0001 C CNN
	1    3300 4400
	1    0    0    1   
$EndComp
Wire Wire Line
	6200 5250 6200 4900
Connection ~ 6200 4900
Wire Wire Line
	6200 4900 7100 4900
Wire Wire Line
	2850 4200 3400 4200
Wire Wire Line
	3400 4200 3400 3150
Wire Wire Line
	2850 4400 3100 4400
Wire Wire Line
	2850 4500 3600 4500
Wire Wire Line
	4000 5450 4000 4900
Wire Wire Line
	1600 5450 4000 5450
Wire Wire Line
	2850 4100 4300 4100
Wire Wire Line
	4300 4100 4300 4900
Connection ~ 4300 4900
Wire Wire Line
	4300 4900 4600 4900
Wire Wire Line
	1650 2550 1650 3500
Wire Wire Line
	1650 3500 1850 3500
Wire Wire Line
	1650 2550 6950 2550
$EndSCHEMATC
